{
    "version": "https://jsonfeed.org/version/1",
    "title": "Oseye Riddle",
    "description": "",
    "home_page_url": "https://OseyeRiddle.gitlab.io/Websitepublii",
    "feed_url": "https://OseyeRiddle.gitlab.io/Websitepublii/feed.json",
    "user_comment": "",
    "author": {
        "name": "Oseye Riddle (Xe Xyr Xem | She Her Hers)"
    },
    "items": [
    ]
}
